{
  "projectName": "amplifyapi20201214",
  "version": "3.0",
  "frontend": "javascript",
  "javascript": {
    "framework": "react",
    "config": {
      "SourceDir": "src",
      "DistributionDir": "dist",
      "BuildCommand": "yarn build",
      "StartCommand": "yarn dev"
    }
  },
  "providers": [
    "awscloudformation"
  ]
}